D:/data-shared/varroc/VND-images/zpracovane\img_r_111.png 449.5848083496094,233.63197326660156,461.45452880859375,242.04673767089844,0.99524194,0 332.9028015136719,228.96932983398438,381.66534423828125,260.3098449707031,0.9817083,0 417.18133544921875,245.08987426757812,449.0241394042969,263.796875,0.8376116,0 342.7253112792969,256.43701171875,353.42364501953125,259.34564208984375,0.18245447,0 357.8099365234375,256.75860595703125,369.8518981933594,259.13494873046875,0.12242285,0 
D:/data-shared/varroc/VND-images/zpracovane\img_r_112.png 493.890625,212.72694396972656,527.9215087890625,234.85609436035156,0.98888457,0 
D:/data-shared/varroc/VND-images/zpracovane\img_r_113.png 461.12823486328125,214.6042022705078,495.3834533691406,237.81732177734375,0.95026267,0 494.6402893066406,210.55555725097656,502.1674499511719,215.63519287109375,0.9298089,0 575.1832275390625,207.71688842773438,581.3343505859375,211.32052612304688,0.43388504,0 
D:/data-shared/varroc/VND-images/zpracovane\img_r_114.png 449.4307556152344,233.3151397705078,461.71368408203125,242.14828491210938,0.9944338,0 330.90679931640625,228.3323974609375,380.92138671875,260.8629150390625,0.9896928,0 417.5490417480469,245.14572143554688,449.1393127441406,263.8497009277344,0.89322245,0 
D:/data-shared/varroc/VND-images/zpracovane\img_r_115.png 327.62506103515625,227.02394104003906,380.0065612792969,261.5021057128906,0.9941945,0 449.2607116699219,232.72079467773438,461.8352966308594,241.76373291015625,0.9937528,0 417.9333801269531,245.6761474609375,449.3200378417969,263.85906982421875,0.87235266,0 
D:/data-shared/varroc/VND-images/zpracovane\img_r_116.png 449.3884582519531,232.76547241210938,461.1932373046875,241.35894775390625,0.9961074,0 320.8487854003906,228.5007781982422,379.4889831542969,263.1654357910156,0.9912743,0 418.1707458496094,245.9872283935547,449.52191162109375,263.9622802734375,0.88846576,0 584.2135620117188,227.38424682617188,588.8901977539062,231.0795135498047,0.4708618,0 
D:/data-shared/varroc/VND-images/zpracovane\img_r_117.png 317.3768310546875,227.72242736816406,376.93475341796875,263.4941101074219,0.9978591,0 449.3138732910156,232.60897827148438,461.2142028808594,241.23582458496094,0.99592274,0 418.6064758300781,246.05091857910156,450.2049560546875,264.2959899902344,0.9490425,0 583.1260986328125,226.47427368164062,589.097412109375,231.13758850097656,0.8372644,0 
D:/data-shared/varroc/VND-images/zpracovane\img_r_118.png 314.27679443359375,227.0224151611328,373.8594665527344,263.8314514160156,0.9986437,0 448.92950439453125,232.62258911132812,460.42596435546875,240.97946166992188,0.9975498,0 418.7075500488281,246.2110595703125,450.1417236328125,264.43804931640625,0.92857015,0 582.6666259765625,226.4181671142578,588.9037475585938,231.2383575439453,0.8459265,0 
D:/data-shared/varroc/VND-images/zpracovane\img_r_119.png 308.5840759277344,226.1264190673828,370.39483642578125,264.32147216796875,0.99897045,0 448.937744140625,232.25677490234375,460.8384704589844,240.9877166748047,0.99634534,0 582.57177734375,224.56204223632812,590.876953125,230.3659210205078,0.97583985,0 418.2943420410156,245.98992919921875,450.322998046875,265.2375793457031,0.9678319,0 512.6637573242188,224.23399353027344,518.6945190429688,228.90011596679688,0.12976643,0 
D:/data-shared/varroc/VND-images/zpracovane\img_r_199.png 422.4994201660156,195.59510803222656,455.53936767578125,219.48526000976562,0.9971623,0 428.765625,151.0917510986328,444.1858825683594,160.49693298339844,0.9960457,0 624.7540283203125,140.45150756835938,635.2684326171875,146.52996826171875,0.99600124,0 583.0154418945312,144.29861450195312,595.309326171875,151.2123565673828,0.98708487,0 403.64312744140625,172.22067260742188,420.6002197265625,184.570556640625,0.981497,0 371.29278564453125,197.21990966796875,406.695556640625,223.90257263183594,0.9673684,0 605.42529296875,137.74066162109375,614.075927734375,141.6222686767578,0.7311038,0 606.0814819335938,138.7423553466797,612.3637084960938,142.05335998535156,0.4139147,0 
D:/data-shared/varroc/VND-images/zpracovane\img_r_2.png 480.1971435546875,213.39425659179688,514.0333862304688,236.67262268066406,0.9890397,0 526.6146850585938,211.89755249023438,531.34375,214.77584838867188,0.361347,0 
D:/data-shared/varroc/VND-images/zpracovane\img_r_20.png 362.822509765625,198.32945251464844,394.66363525390625,219.1749725341797,0.9918356,0 439.6737060546875,214.23362731933594,445.2600402832031,218.2657470703125,0.81966585,0 
D:/data-shared/varroc/VND-images/zpracovane\img_r_200.png 427.3409729003906,150.13185119628906,441.68511962890625,159.73960876464844,0.9981343,0 582.4419555664062,143.532958984375,593.779052734375,150.2827606201172,0.99617934,0 422.28240966796875,194.27154541015625,455.2220458984375,218.2493133544922,0.99466366,0 623.8241577148438,139.3082275390625,634.3052368164062,145.142578125,0.9939902,0 401.4771423339844,170.5977020263672,420.5662841796875,183.4676513671875,0.9697035,0 370.08319091796875,196.71066284179688,405.71490478515625,223.72544860839844,0.94446844,0 606.5130004882812,137.7056884765625,613.4994506835938,140.66900634765625,0.6079365,0 
D:/data-shared/varroc/VND-images/zpracovane\img_r_201.png 446.4990539550781,214.62176513671875,479.27740478515625,237.6950225830078,0.9530886,0 554.7189331054688,208.90631103515625,561.1284790039062,212.90184020996094,0.16856042,0 558.3956909179688,208.443115234375,564.754150390625,212.1107635498047,0.11789188,0 
D:/data-shared/varroc/VND-images/zpracovane\img_r_202.png 581.427978515625,141.84039306640625,592.6787109375,148.80322265625,0.99749345,0 426.1622314453125,149.24717712402344,441.3067932128906,158.65357971191406,0.9964032,0 421.2857360839844,193.26962280273438,454.7021789550781,216.4685516357422,0.99386847,0 605.70849609375,135.77818298339844,614.1632080078125,139.6251678466797,0.9829282,0 623.0609130859375,138.1953887939453,632.6832275390625,143.9197540283203,0.9746014,0 401.33734130859375,169.5026092529297,420.0658874511719,182.3035125732422,0.95733494,0 367.97900390625,196.20233154296875,404.2154846191406,223.17698669433594,0.89644295,0 
D:/data-shared/varroc/VND-images/zpracovane\img_r_203.png 581.4873046875,140.88223266601562,592.4659423828125,147.89923095703125,0.9968564,0 425.297119140625,148.2209014892578,441.0595397949219,157.27377319335938,0.99050426,0 400.369873046875,168.0580291748047,419.9529113769531,181.72344970703125,0.98946786,0 420.48968505859375,192.71006774902344,454.50323486328125,215.88914489746094,0.97238404,0 606.7241821289062,135.05247497558594,615.1224975585938,138.94046020507812,0.97000045,0 362.16644287109375,196.0714111328125,403.9717102050781,222.9557342529297,0.83831066,0 621.5032348632812,136.79090881347656,631.1661376953125,142.36524963378906,0.6880362,0 622.189453125,139.00619506835938,631.4083251953125,143.27197265625,0.564975,0 
D:/data-shared/varroc/VND-images/zpracovane\img_r_204.png 423.4552917480469,146.73167419433594,438.227783203125,156.64627075195312,0.99483794,0 580.1480102539062,140.29879760742188,591.3949584960938,146.9051513671875,0.99372417,0 399.4673156738281,167.23199462890625,419.1372375488281,181.004638671875,0.9917023,0 420.06683349609375,190.5985107421875,454.03851318359375,214.062255859375,0.9875081,0 620.828125,135.8898162841797,630.9367065429688,141.84417724609375,0.9571883,0 608.2516479492188,134.90065002441406,614.8195190429688,138.04412841796875,0.82003593,0 361.9501647949219,195.45181274414062,403.0393981933594,222.6530303955078,0.75674677,0 507.1727294921875,143.19761657714844,513.0171508789062,147.4627227783203,0.42445043,0 510.9644470214844,143.3715362548828,516.438720703125,147.01426696777344,0.26971623,0 614.8037109375,135.3066864013672,628.4803466796875,139.82801818847656,0.14971313,0 621.1748657226562,139.44029235839844,631.0988159179688,142.67674255371094,0.10273499,0 
D:/data-shared/varroc/VND-images/zpracovane\img_r_205.png 422.2527160644531,146.13966369628906,437.15777587890625,155.87733459472656,0.99763083,0 419.8564147949219,189.43359375,453.94281005859375,212.8887939453125,0.9945297,0 579.7507934570312,139.43783569335938,590.9444580078125,146.13197326660156,0.9930019,0 399.2437438964844,166.73863220214844,418.7822265625,180.546142578125,0.98980266,0 608.54443359375,133.7693634033203,616.0098876953125,137.59092712402344,0.8452557,0 506.2447204589844,142.04986572265625,512.6489868164062,146.85202026367188,0.83886474,0 354.35455322265625,195.168701171875,402.3248291015625,224.57290649414062,0.6638926,0 620.2297973632812,135.3157958984375,629.7938232421875,140.92401123046875,0.55307394,0 613.2725830078125,134.5755615234375,627.49853515625,138.8911590576172,0.27515405,0 608.7360229492188,132.9185333251953,631.71728515625,141.267578125,0.20132919,0 
D:/data-shared/varroc/VND-images/zpracovane\img_r_206.png 420.5054626464844,145.24343872070312,436.4552001953125,155.2300567626953,0.9970939,0 419.595947265625,188.31399536132812,453.4207763671875,211.94708251953125,0.9955371,0 398.4033508300781,166.27493286132812,418.82867431640625,180.6529998779297,0.9857238,0 579.468505859375,139.25076293945312,590.45068359375,145.55201721191406,0.9796378,0 504.4002990722656,140.14430236816406,513.6951904296875,146.2530059814453,0.9748334,0 352.1806335449219,194.19967651367188,400.7220764160156,224.68043518066406,0.8878235,0 620.0292358398438,134.92080688476562,630.179443359375,140.57594299316406,0.56396264,0 612.9727172851562,134.49801635742188,628.4998168945312,139.1325225830078,0.5463794,0 609.8698120117188,134.05332946777344,615.9298706054688,137.42514038085938,0.41211948,0 609.1090087890625,133.07363891601562,631.9180297851562,141.22650146484375,0.18184136,0 
D:/data-shared/varroc/VND-images/zpracovane\img_r_207.png 419.1736145019531,144.15785217285156,435.9541015625,154.96031188964844,0.997083,0 419.0461120605469,187.37112426757812,452.8962097167969,211.0900115966797,0.995535,0 503.10516357421875,139.68740844726562,513.6676025390625,145.95655822753906,0.98532325,0 397.35296630859375,166.41156005859375,416.60479736328125,180.08517456054688,0.9685366,0 577.907470703125,139.04481506347656,588.19482421875,145.0023956298828,0.9504307,0 350.8507995605469,194.02627563476562,398.8714904785156,224.95175170898438,0.9312087,0 612.59765625,133.2605743408203,627.9169311523438,138.92959594726562,0.6499925,0 607.9059448242188,132.78688049316406,630.9974365234375,140.92523193359375,0.20318271,0 609.86279296875,133.81614685058594,616.9371337890625,137.64117431640625,0.15703051,0 
D:/data-shared/varroc/VND-images/zpracovane\img_r_208.png 417.91253662109375,144.62380981445312,434.1224060058594,154.49974060058594,0.99717635,0 418.988037109375,185.4692840576172,452.75372314453125,210.24456787109375,0.99476236,0 501.34979248046875,137.43765258789062,513.9614868164062,144.85299682617188,0.99239236,0 397.1404113769531,166.13082885742188,415.9192199707031,179.7742156982422,0.9836719,0 348.31005859375,193.78256225585938,396.0960693359375,225.5690155029297,0.97300786,0 578.2589721679688,138.7448272705078,587.65478515625,144.50668334960938,0.9461226,0 612.4667358398438,132.5364532470703,627.5421752929688,138.97776794433594,0.92143846,0 
D:/data-shared/varroc/VND-images/zpracovane\img_r_209.png 418.96966552734375,184.48101806640625,452.45574951171875,208.2664794921875,0.9968709,0 416.45245361328125,144.29776000976562,433.2328186035156,154.06568908691406,0.994473,0 396.05316162109375,165.93307495117188,414.6473388671875,179.91488647460938,0.9937702,0 345.4880676269531,192.55197143554688,394.1021423339844,225.0982208251953,0.9882813,0 500.8463439941406,137.31002807617188,513.7240600585938,144.62405395507812,0.98721755,0 578.2666015625,137.91885375976562,587.6622924804688,143.81784057617188,0.9032615,0 610.9393920898438,131.75430297851562,625.1502075195312,138.3225555419922,0.8999273,0 610.3518676757812,131.54908752441406,619.4374389648438,136.97216796875,0.47771794,0 
D:/data-shared/varroc/VND-images/zpracovane\img_r_21.png 363.2881164550781,198.79238891601562,395.3370666503906,219.45973205566406,0.9915693,0 440.090576171875,215.0965118408203,445.7106628417969,219.07745361328125,0.7356655,0 
D:/data-shared/varroc/VND-images/zpracovane\img_r_210.png 418.55267333984375,183.78640747070312,451.8209533691406,207.3376007080078,0.9968639,0 395.2021484375,165.8177490234375,414.4715270996094,179.76953125,0.9950023,0 341.9239196777344,191.86892700195312,391.97418212890625,225.39442443847656,0.9932756,0 415.3201904296875,143.75502014160156,430.9359436035156,154.8987579345703,0.9921787,0 611.8971557617188,130.96803283691406,626.4737548828125,138.3046417236328,0.98284715,0 577.5750122070312,138.09823608398438,586.2367553710938,143.69488525390625,0.9369158,0 498.8997497558594,137.3717498779297,513.3675537109375,144.51991271972656,0.9064289,0 
D:/data-shared/varroc/VND-images/zpracovane\img_r_211.png 414.9373474121094,143.6684112548828,430.3744812011719,154.70925903320312,0.9971862,0 418.37115478515625,183.3096160888672,451.1376037597656,206.31883239746094,0.99656034,0 612.9393920898438,132.28172302246094,624.2112426757812,138.7855987548828,0.99653757,0 338.23114013671875,191.17491149902344,389.849609375,226.26625061035156,0.9963348,0 392.87060546875,165.982421875,414.38311767578125,179.78713989257812,0.9948358,0 498.3283996582031,137.9326934814453,512.9131469726562,144.1367645263672,0.8258682,0 578.6425170898438,138.7449493408203,585.9251708984375,143.3076629638672,0.7812603,0 577.66845703125,137.1259307861328,586.2576904296875,142.2737579345703,0.21771546,0 580.9379272460938,139.30166625976562,588.0266723632812,143.68289184570312,0.2018584,0 498.0169372558594,136.09259033203125,508.7765808105469,143.2017822265625,0.19279328,0 
D:/data-shared/varroc/VND-images/zpracovane\img_r_212.png 444.7486877441406,215.26011657714844,477.76116943359375,238.00155639648438,0.9802578,0 552.767822265625,209.07571411132812,559.7205200195312,212.7046661376953,0.15961681,0 
D:/data-shared/varroc/VND-images/zpracovane\img_r_213.png 334.633544921875,192.00717163085938,387.05987548828125,228.41690063476562,0.9975789,0 413.0049743652344,143.46133422851562,429.61541748046875,154.48818969726562,0.99738693,0 392.6192626953125,165.99168395996094,414.200439453125,180.09657287597656,0.99688417,0 612.4061889648438,131.7477264404297,623.7738037109375,138.36277770996094,0.9964181,0 418.13116455078125,182.79579162597656,450.4877014160156,205.49514770507812,0.99472845,0 496.107421875,135.8767547607422,510.001220703125,143.6762237548828,0.75556165,0 578.6787719726562,139.25436401367188,586.0768432617188,143.15078735351562,0.5904139,0 581.179931640625,139.4401092529297,588.1507568359375,143.6827392578125,0.37060505,0 577.81884765625,137.31541442871094,586.1143188476562,141.95347595214844,0.119343504,0 
D:/data-shared/varroc/VND-images/zpracovane\img_r_214.png 330.5613708496094,192.14279174804688,384.1564025878906,230.538330078125,0.9984166,0 612.5667114257812,132.29495239257812,623.3624877929688,139.06088256835938,0.99706304,0 390.8443603515625,165.48675537109375,413.91168212890625,180.47132873535156,0.99475384,0 417.543701171875,182.74392700195312,450.1511535644531,205.48275756835938,0.9935543,0 411.1341552734375,143.5452423095703,428.9859619140625,154.9846649169922,0.9924469,0 494.128662109375,135.77183532714844,509.5394592285156,143.81851196289062,0.8754603,0 577.3599853515625,139.34695434570312,585.5458984375,143.20152282714844,0.6090903,0 577.1728515625,137.23544311523438,585.5877075195312,141.9539337158203,0.18659627,0 581.3443603515625,139.72352600097656,588.0498657226562,143.61448669433594,0.15756477,0 491.57733154296875,137.7388458251953,515.843017578125,145.0577850341797,0.1078808,0 
D:/data-shared/varroc/VND-images/zpracovane\img_r_215.png 327.5227966308594,192.0829620361328,382.2998962402344,231.3927001953125,0.9984857,0 410.4822082519531,144.2146453857422,427.35595703125,154.74850463867188,0.99733716,0 390.45928955078125,165.58290100097656,412.3911437988281,181.02513122558594,0.99635315,0 612.4674682617188,132.10626220703125,623.4461059570312,138.91900634765625,0.9943694,0 417.51190185546875,182.43173217773438,450.2602233886719,205.4348602294922,0.9924408,0 492.4180908203125,137.1991424560547,508.0755310058594,144.56214904785156,0.898535,0 576.8366088867188,140.62139892578125,582.1132202148438,143.5930633544922,0.15085682,0 
D:/data-shared/varroc/VND-images/zpracovane\img_r_216.png 325.58868408203125,192.43844604492188,380.55780029296875,232.7271270751953,0.996815,0 611.9883422851562,132.20834350585938,624.195068359375,139.24964904785156,0.99587643,0 408.6148681640625,144.54971313476562,426.1336669921875,155.0045166015625,0.99323565,0 390.0824279785156,165.44837951660156,412.2616882324219,181.59237670898438,0.99304885,0 417.1689453125,181.93600463867188,449.80072021484375,204.9931640625,0.9906378,0 490.94549560546875,137.28335571289062,506.7514953613281,144.6254119873047,0.9144142,0 576.8994140625,140.8502960205078,582.23681640625,143.73780822753906,0.11506371,0 
D:/data-shared/varroc/VND-images/zpracovane\img_r_217.png 318.55584716796875,195.18728637695312,378.36224365234375,232.4290008544922,0.99546915,0 611.5376586914062,132.23899841308594,623.9181518554688,139.28753662109375,0.99507266,0 407.3391418457031,144.6920623779297,422.97369384765625,155.95333862304688,0.9904139,0 416.7485656738281,181.9453582763672,449.4388122558594,204.73980712890625,0.9892206,0 389.64312744140625,165.60366821289062,412.0914306640625,182.02783203125,0.9801787,0 489.8277282714844,137.2150115966797,503.7467041015625,144.42356872558594,0.9547477,0 577.1234741210938,140.50601196289062,582.2479858398438,143.4539031982422,0.111338995,0 
D:/data-shared/varroc/VND-images/zpracovane\img_r_218.png 314.9847106933594,194.94322204589844,375.6554260253906,233.25743103027344,0.9976344,0 407.01104736328125,145.1400909423828,422.2822265625,155.93150329589844,0.99576074,0 610.5203857421875,131.95457458496094,623.3109741210938,139.265625,0.9949004,0 416.3725280761719,181.64332580566406,449.2765808105469,204.36439514160156,0.98326904,0 388.7477722167969,166.36917114257812,409.9200744628906,182.46664428710938,0.98162013,0 487.7982482910156,136.70596313476562,502.57086181640625,144.65599060058594,0.96594614,0 577.2945556640625,141.0467987060547,582.2789306640625,144.0862579345703,0.20364635,0 
D:/data-shared/varroc/VND-images/zpracovane\img_r_219.png 406.0956115722656,145.72935485839844,421.1453552246094,156.00701904296875,0.9974975,0 307.0540771484375,195.5784454345703,371.8581237792969,235.60682678222656,0.99711,0 609.7052612304688,132.24693298339844,623.5536499023438,139.6315155029297,0.98554367,0 485.93115234375,136.66453552246094,502.28887939453125,144.89950561523438,0.9853282,0 388.11566162109375,166.50167846679688,409.9656066894531,183.24392700195312,0.976237,0 416.1786193847656,181.48374938964844,449.1896667480469,204.29786682128906,0.97510946,0 574.6404418945312,141.23785400390625,581.1995239257812,145.2543182373047,0.6626879,0 570.0034790039062,141.51454162597656,576.2095947265625,145.1023712158203,0.56738436,0 
D:/data-shared/varroc/VND-images/zpracovane\img_r_22.png 363.31866455078125,199.30575561523438,395.52117919921875,219.98831176757812,0.98993003,0 440.12841796875,215.99888610839844,445.87518310546875,220.13653564453125,0.7078221,0 
D:/data-shared/varroc/VND-images/zpracovane\img_r_220.png 295.7799377441406,191.075439453125,376.75775146484375,241.82032775878906,0.99642247,0 404.5984802246094,145.82688903808594,420.65472412109375,156.09078979492188,0.9958067,0 484.2192077636719,136.7635040283203,501.0003662109375,145.0947723388672,0.98729986,0 609.430419921875,131.37648010253906,625.33349609375,139.3661346435547,0.9815629,0 387.3502197265625,167.083740234375,409.4210510253906,183.69688415527344,0.97412646,0 414.1811828613281,181.96575927734375,448.0118408203125,203.95225524902344,0.97346246,0 574.0388793945312,140.8507080078125,581.0685424804688,144.88279724121094,0.6813619,0 570.3904418945312,141.07073974609375,576.8220825195312,144.77505493164062,0.6093929,0 
D:/data-shared/varroc/VND-images/zpracovane\img_r_221.png 289.08697509765625,191.71331787109375,375.0787048339844,243.51339721679688,0.99600285,0 403.6386413574219,146.01922607421875,419.9609680175781,156.42384338378906,0.9950592,0 385.20294189453125,168.27476501464844,407.9499816894531,183.9727325439453,0.9893646,0 482.735107421875,137.1163787841797,500.30950927734375,145.3838653564453,0.9806822,0 413.9876403808594,181.78555297851562,447.8978271484375,203.80052185058594,0.97937727,0 609.1062622070312,132.25518798828125,624.4100341796875,139.91102600097656,0.9707707,0 574.5220336914062,140.31166076660156,581.188232421875,144.91241455078125,0.8439017,0 571.8450927734375,140.78721618652344,577.5623779296875,144.52578735351562,0.25616524,0 
D:/data-shared/varroc/VND-images/zpracovane\img_r_304.png 631.1698608398438,179.3038787841797,642.1867065429688,185.06015014648438,0.9978657,0 590.3541259765625,181.0362091064453,602.0134887695312,187.0430450439453,0.99399513,0 330.3356628417969,196.3704376220703,369.7792053222656,222.3873291015625,0.94749314,0 608.313720703125,176.68270874023438,618.812255859375,181.42120361328125,0.93314517,0 383.4669494628906,193.80052185058594,414.8244934082031,216.2237548828125,0.8767882,0 506.34893798828125,179.14390563964844,525.5057983398438,185.03199768066406,0.7488279,0 505.86456298828125,175.77809143066406,526.8328857421875,183.8734893798828,0.36144653,0 609.210205078125,178.8599853515625,618.7525634765625,182.35325622558594,0.28970394,0 392.5878601074219,176.9081573486328,410.113037109375,191.92733764648438,0.16726896,0 
D:/data-shared/varroc/VND-images/zpracovane\img_r_305.png 631.0615234375,179.79811096191406,642.0628662109375,185.67225646972656,0.9987072,0 590.6456298828125,181.7655792236328,602.600830078125,188.01834106445312,0.9935178,0 383.4183044433594,193.82513427734375,414.701416015625,216.35006713867188,0.90908396,0 608.3583984375,177.08511352539062,619.1287231445312,181.96498107910156,0.87453765,0 329.4092712402344,196.82278442382812,369.3782958984375,223.652099609375,0.64805454,0 503.0813293457031,178.34515380859375,526.71337890625,186.3001251220703,0.5702512,0 506.0862121582031,180.55184936523438,525.1806640625,185.42098999023438,0.5017275,0 391.93463134765625,177.9346160888672,409.89031982421875,192.1889190673828,0.12143129,0 
D:/data-shared/varroc/VND-images/zpracovane\img_r_306.png 631.34228515625,179.9864959716797,642.2401123046875,185.9553985595703,0.9981688,0 591.1729125976562,182.35533142089844,603.1865844726562,188.7246856689453,0.9947783,0 504.92755126953125,178.71551513671875,523.8235473632812,185.63125610351562,0.90661854,0 383.11981201171875,193.4817352294922,415.0743408203125,216.1984100341797,0.82823133,0 321.7867431640625,195.27056884765625,366.6959228515625,224.93634033203125,0.6703541,0 609.070556640625,177.35690307617188,620.19580078125,181.83590698242188,0.5897737,0 612.2797241210938,178.690673828125,620.6786499023438,182.84703063964844,0.5202672,0 
D:/data-shared/varroc/VND-images/zpracovane\img_r_307.png 630.6817626953125,180.4088897705078,641.5526123046875,186.66322326660156,0.9985268,0 591.4176635742188,182.59364318847656,604.0819702148438,189.3087615966797,0.99507993,0 505.0180358886719,179.06105041503906,522.7939453125,186.0272216796875,0.8966358,0 321.112548828125,195.69827270507812,366.2638854980469,226.0105743408203,0.8499834,0 382.92181396484375,193.3368377685547,415.1200256347656,216.2855682373047,0.8388411,0 613.5111083984375,179.9887237548828,620.9843139648438,183.82925415039062,0.8301809,0 331.03839111328125,192.01014709472656,382.8109130859375,220.12478637695312,0.117675185,0 
D:/data-shared/varroc/VND-images/zpracovane\img_r_308.png 592.3369140625,182.63380432128906,604.8966064453125,189.74917602539062,0.99199027,0 630.8564453125,180.6715087890625,641.758544921875,186.7720947265625,0.99087024,0 614.5455932617188,180.16236877441406,622.7068481445312,184.44979858398438,0.94842875,0 320.445068359375,196.536376953125,365.1610412597656,226.91053771972656,0.89199746,0 504.6952209472656,179.073486328125,521.7548217773438,186.4313201904297,0.83978045,0 382.402587890625,193.06149291992188,415.3829650878906,216.27328491210938,0.77085835,0 590.93115234375,187.40658569335938,606.0833740234375,190.48312377929688,0.104521275,0 
D:/data-shared/varroc/VND-images/zpracovane\img_r_309.png 592.5610961914062,182.657470703125,605.5239868164062,190.193115234375,0.983073,0 630.7293701171875,181.11288452148438,641.972412109375,187.28382873535156,0.9780395,0 319.88531494140625,197.20408630371094,364.6910400390625,228.53468322753906,0.9622664,0 614.7213745117188,180.9546356201172,622.9037475585938,185.25526428222656,0.9371836,0 501.35736083984375,179.17196655273438,519.2477416992188,186.00778198242188,0.7433146,0 381.8074035644531,192.65219116210938,415.6119689941406,216.35293579101562,0.5676779,0 591.3753051757812,187.14984130859375,606.411865234375,190.5307159423828,0.17185424,0 332.09027099609375,191.97079467773438,384.6377258300781,220.634521484375,0.116039,0 
D:/data-shared/varroc/VND-images/zpracovane\img_r_31.png 369.035400390625,203.9356689453125,401.16400146484375,223.41798400878906,0.97600204,0 
D:/data-shared/varroc/VND-images/zpracovane\img_r_310.png 592.6650390625,182.58486938476562,605.8770751953125,190.67355346679688,0.98849446,0 318.1916198730469,197.36399841308594,363.5305480957031,229.52146911621094,0.98477024,0 630.9136352539062,181.61056518554688,642.9663696289062,187.88722229003906,0.9743354,0 616.2489624023438,180.78550720214844,623.1488037109375,184.3709716796875,0.8410118,0 497.77532958984375,179.66757202148438,521.9991455078125,187.5337371826172,0.661983,0 379.82098388671875,185.6646728515625,416.42083740234375,218.1277313232422,0.60421425,0 591.1483154296875,186.7822723388672,606.82958984375,190.61968994140625,0.16292636,0 622.3712768554688,181.1206817626953,644.698974609375,188.5913848876953,0.13559361,0 
D:/data-shared/varroc/VND-images/zpracovane\img_r_311.png 316.8234558105469,197.29385375976562,363.2757873535156,230.73016357421875,0.9927352,0 592.8115844726562,183.68603515625,605.7313232421875,191.0773162841797,0.956092,0 500.10400390625,179.5231475830078,517.5558471679688,186.69593811035156,0.81564945,0 379.52276611328125,185.70745849609375,416.3259582519531,217.5872344970703,0.695326,0 630.0055541992188,181.8971710205078,642.1019287109375,187.54669189453125,0.6335293,0 620.4384765625,180.71424865722656,643.9208984375,188.34817504882812,0.40972856,0 621.7368774414062,182.29930114746094,632.3272094726562,185.93551635742188,0.29143924,0 618.42138671875,181.88182067871094,624.6807250976562,185.52891540527344,0.26378593,0 
D:/data-shared/varroc/VND-images/zpracovane\img_r_312.png 428.7568054199219,214.382080078125,461.17486572265625,236.14842224121094,0.98909366,0 
D:/data-shared/varroc/VND-images/zpracovane\img_r_313.png 313.4395751953125,197.59622192382812,362.0234375,232.3817901611328,0.9957373,0 592.604736328125,183.2501678466797,606.4473876953125,191.3106689453125,0.9509258,0 379.1312561035156,185.54698181152344,415.7562255859375,216.66075134277344,0.71918637,0 499.9661560058594,179.7349395751953,517.6244506835938,186.77340698242188,0.71536386,0 629.20849609375,181.87367248535156,642.2767333984375,187.7798309326172,0.57389635,0 621.7297973632812,180.778076171875,644.835693359375,188.52593994140625,0.35805827,0 622.3936157226562,182.36781311035156,633.1962890625,186.40481567382812,0.21862027,0 593.2786254882812,186.9629364013672,607.542724609375,191.0476531982422,0.19280794,0 
D:/data-shared/varroc/VND-images/zpracovane\img_r_314.png 310.4934997558594,197.54823303222656,361.03790283203125,232.94956970214844,0.99714285,0 594.5398559570312,183.94482421875,607.5907592773438,190.45912170410156,0.98226506,0 499.2480773925781,179.61920166015625,516.4517822265625,187.06988525390625,0.79589546,0 378.73016357421875,185.6425323486328,415.50048828125,216.21481323242188,0.78626883,0 627.9986572265625,181.6650848388672,642.1053466796875,187.77239990234375,0.507645,0 593.8104248046875,186.9119110107422,607.9332885742188,190.93849182128906,0.41634297,0 623.1350708007812,181.72845458984375,634.2677612304688,186.81207275390625,0.3710823,0 622.1737670898438,181.0083770751953,644.8003540039062,188.76800537109375,0.23640746,0 
D:/data-shared/varroc/VND-images/zpracovane\img_r_315.png 307.51153564453125,198.32240295410156,359.54669189453125,234.49049377441406,0.99743265,0 595.137939453125,183.84274291992188,607.8082275390625,190.45208740234375,0.9879979,0 377.7239685058594,184.8011474609375,414.7192077636719,214.68295288085938,0.76151836,0 498.4267272949219,180.5142059326172,515.9788208007812,187.25267028808594,0.5837433,0 627.0499877929688,181.67091369628906,642.6034545898438,188.1859588623047,0.5821902,0 594.1414794921875,187.01080322265625,608.0445556640625,191.01144409179688,0.42269662,0 624.0958862304688,181.62457275390625,635.5196533203125,186.83230590820312,0.20945151,0 
D:/data-shared/varroc/VND-images/zpracovane\img_r_316.png 303.8446044921875,198.52288818359375,357.18182373046875,235.7428741455078,0.997767,0 594.9093017578125,183.87396240234375,607.953857421875,190.51199340820312,0.9847193,0 626.9627075195312,181.0838623046875,642.6078491210938,188.79994201660156,0.9215163,0 377.25457763671875,184.55857849121094,414.22357177734375,214.18011474609375,0.82329607,0 493.9547119140625,180.1492919921875,517.9287719726562,187.8978729248047,0.65987134,0 594.22998046875,186.92733764648438,608.02685546875,191.09219360351562,0.5071177,0 497.7554931640625,188.9399871826172,516.4307861328125,191.11712646484375,0.12917858,0 
D:/data-shared/varroc/VND-images/zpracovane\img_r_317.png 299.53302001953125,199.0126190185547,353.41876220703125,236.98965454101562,0.99599946,0 596.2794189453125,183.93707275390625,608.57421875,190.7466278076172,0.9913997,0 627.9064331054688,181.29690551757812,643.1895141601562,188.4633026123047,0.9802061,0 376.7834167480469,184.48341369628906,413.7482604980469,214.0157470703125,0.8462561,0 492.7358703613281,180.13050842285156,515.6936645507812,188.0068359375,0.44217023,0 
D:/data-shared/varroc/VND-images/zpracovane\img_r_318.png 629.114990234375,181.58087158203125,643.1019287109375,188.7002410888672,0.9959331,0 296.1014709472656,198.64292907714844,350.3888244628906,237.91297912597656,0.9937737,0 596.2974853515625,184.17779541015625,608.4284057617188,190.83489990234375,0.9860299,0 376.1069641113281,184.58445739746094,413.3099670410156,213.3969268798828,0.852705,0 491.8226318359375,180.18028259277344,515.072265625,188.1393280029297,0.56523305,0 
D:/data-shared/varroc/VND-images/zpracovane\img_r_319.png 630.874755859375,181.91390991210938,644.5808715820312,188.86293029785156,0.99181384,0 596.2755737304688,184.0589599609375,609.5551147460938,190.9676513671875,0.98286825,0 294.8269958496094,198.66468811035156,347.81610107421875,238.7857208251953,0.9766828,0 375.24237060546875,184.78717041015625,412.6854553222656,213.08590698242188,0.871337,0 490.50360107421875,180.23660278320312,513.7896728515625,188.20286560058594,0.5853044,0 493.9003601074219,181.00942993164062,509.0335388183594,187.10580444335938,0.1783361,0 
D:/data-shared/varroc/VND-images/zpracovane\img_r_32.png 369.6405029296875,204.11383056640625,401.5776672363281,223.67063903808594,0.98265916,0 
D:/data-shared/varroc/VND-images/zpracovane\img_r_320.png 630.9696044921875,182.04624938964844,644.75927734375,189.36764526367188,0.9948068,0 596.7084350585938,184.0306854248047,610.7129516601562,191.19003295898438,0.96733344,0 374.7723083496094,184.69326782226562,412.5680847167969,212.42401123046875,0.86576986,0 287.06964111328125,201.59716796875,347.34039306640625,244.0380859375,0.8154353,0 489.4054870605469,180.31741333007812,513.3380126953125,188.33529663085938,0.75495964,0 493.5660400390625,189.28704833984375,508.0469055175781,191.35353088378906,0.13645077,0 493.5789489746094,181.8572235107422,507.74359130859375,187.33822631835938,0.13405783,0 
D:/data-shared/varroc/VND-images/zpracovane\img_r_321.png 632.11767578125,182.4510955810547,645.778564453125,190.1797637939453,0.993585,0 275.05487060546875,197.67628479003906,349.8675231933594,248.25025939941406,0.99101424,0 596.3245239257812,185.6591796875,610.2433471679688,192.3853759765625,0.96556294,0 374.0055236816406,184.97430419921875,412.65252685546875,212.09251403808594,0.75088584,0 488.3782043457031,180.20098876953125,512.2869262695312,188.3786163330078,0.717317,0 491.5993347167969,189.63438415527344,509.0174255371094,191.87037658691406,0.18569463,0 492.6172180175781,181.7616424560547,508.1916809082031,187.58311462402344,0.15292452,0 
D:/data-shared/varroc/VND-images/zpracovane\img_r_322.png 269.35577392578125,197.8391876220703,344.951904296875,250.70126342773438,0.9988922,0 632.0533447265625,182.39048767089844,646.5460815429688,190.30621337890625,0.9837235,0 596.99560546875,185.57008361816406,610.492919921875,192.38986206054688,0.9788604,0 372.98699951171875,187.13400268554688,415.2048034667969,216.0643768310547,0.71844023,0 487.8291015625,180.20249938964844,511.76214599609375,188.47256469726562,0.6822922,0 491.6439514160156,189.71829223632812,508.3385925292969,191.98480224609375,0.1812885,0 
D:/data-shared/varroc/VND-images/zpracovane\img_r_323.png 427.62994384765625,214.59877014160156,459.369384765625,236.02743530273438,0.9884969,0 
D:/data-shared/varroc/VND-images/zpracovane\img_r_324.png 263.1330871582031,199.69131469726562,341.2743835449219,252.255859375,0.9996607,0 597.1119995117188,185.69485473632812,610.7789306640625,192.60958862304688,0.9913887,0 633.6546630859375,182.54830932617188,648.5894165039062,190.14364624023438,0.98484063,0 487.1580505371094,180.17897033691406,511.3962707519531,188.49827575683594,0.72900933,0 372.8186950683594,186.58998107910156,415.0643310546875,215.68865966796875,0.7252292,0 490.8528747558594,189.84207153320312,508.8486328125,192.14515686035156,0.2021985,0 492.0256042480469,181.65269470214844,508.0361022949219,187.73672485351562,0.17045876,0 
D:/data-shared/varroc/VND-images/zpracovane\img_r_325.png 255.9914093017578,199.8745574951172,337.3834228515625,254.23306274414062,0.9998084,0 634.5872192382812,182.2284698486328,650.4644165039062,190.72958374023438,0.9916266,0 597.5011596679688,185.89468383789062,611.2869262695312,192.78248596191406,0.9910202,0 372.11810302734375,186.3451690673828,414.7150573730469,215.4712677001953,0.7356606,0 486.3993225097656,180.14662170410156,510.9410705566406,188.5857696533203,0.69613683,0 490.4681091308594,189.85122680664062,508.278564453125,192.12001037597656,0.17494006,0 491.10693359375,181.76300048828125,507.52081298828125,187.884765625,0.16100642,0 
D:/data-shared/varroc/VND-images/zpracovane\img_r_856.png 363.38604736328125,190.83544921875,396.08551025390625,211.24041748046875,0.98697513,0 
D:/data-shared/varroc/VND-images/zpracovane\img_r_857.png 81.9701919555664,177.79684448242188,128.56285095214844,200.42405700683594,0.837413,0 
D:/data-shared/varroc/VND-images/zpracovane\img_r_858.png 83.77503967285156,177.88067626953125,130.82484436035156,200.6531524658203,0.81629497,0 
D:/data-shared/varroc/VND-images/zpracovane\img_r_859.png 85.9262924194336,178.456298828125,132.546142578125,200.70797729492188,0.82143223,0 
D:/data-shared/varroc/VND-images/zpracovane\img_r_86.png 449.0217590332031,229.09494018554688,461.70306396484375,236.78945922851562,0.98061705,0 521.6314086914062,225.62564086914062,533.486083984375,231.99302673339844,0.9353561,0 403.4151611328125,227.1193389892578,433.2819519042969,246.754638671875,0.86757565,0 371.9323425292969,232.52505493164062,392.6273498535156,245.09825134277344,0.43902242,0 379.0077819824219,234.7205047607422,392.7341003417969,243.76202392578125,0.16184667,0 727.811767578125,183.48106384277344,733.1276245117188,187.01007080078125,0.14901781,0 374.4397277832031,234.72897338867188,388.4949645996094,242.8704833984375,0.14624383,0 
D:/data-shared/varroc/VND-images/zpracovane\img_r_860.png 90.87193298339844,179.1442108154297,136.57260131835938,200.39437866210938,0.77210915,0 
D:/data-shared/varroc/VND-images/zpracovane\img_r_861.png 91.55441284179688,179.71932983398438,138.38751220703125,200.55421447753906,0.9255758,0 
D:/data-shared/varroc/VND-images/zpracovane\img_r_862.png 92.18467712402344,180.15548706054688,140.05157470703125,201.4828338623047,0.9054972,0 
D:/data-shared/varroc/VND-images/zpracovane\img_r_863.png 95.76223754882812,180.510009765625,142.09796142578125,201.66647338867188,0.954733,0 
D:/data-shared/varroc/VND-images/zpracovane\img_r_864.png 97.5433578491211,180.7459259033203,143.93556213378906,202.3766632080078,0.95097315,0 
D:/data-shared/varroc/VND-images/zpracovane\img_r_865.png 101.2747802734375,180.9628143310547,145.96206665039062,203.06704711914062,0.95820576,0 
D:/data-shared/varroc/VND-images/zpracovane\img_r_866.png 103.01522827148438,181.88949584960938,147.94549560546875,203.94898986816406,0.9237986,0 
D:/data-shared/varroc/VND-images/zpracovane\img_r_867.png 362.8588562011719,190.85435485839844,395.4739074707031,211.335693359375,0.9877905,0 431.8734130859375,199.7197265625,436.744873046875,203.28038024902344,0.6431881,0 
D:/data-shared/varroc/VND-images/zpracovane\img_r_868.png 102.75419616699219,182.58602905273438,150.4016571044922,204.91326904296875,0.8260837,0 
D:/data-shared/varroc/VND-images/zpracovane\img_r_869.png 107.02169799804688,184.6254425048828,153.81048583984375,206.4503631591797,0.7951725,0 
D:/data-shared/varroc/VND-images/zpracovane\img_r_87.png 448.9552001953125,229.2274169921875,461.8379211425781,236.95431518554688,0.97645277,0 521.3533325195312,225.67372131347656,533.7926635742188,232.2555389404297,0.95486516,0 404.5097961425781,227.91552734375,433.9217529296875,247.09593200683594,0.87952566,0 374.5682373046875,233.01092529296875,396.28875732421875,246.41180419921875,0.43281603,0 367.9661865234375,238.0883026123047,394.8741455078125,246.1228790283203,0.21504393,0 729.6592407226562,183.15423583984375,735.4081420898438,187.0394287109375,0.18188418,0 
D:/data-shared/varroc/VND-images/zpracovane\img_r_870.png 108.04180908203125,185.64930725097656,156.41622924804688,207.7269744873047,0.8182126,0 
D:/data-shared/varroc/VND-images/zpracovane\img_r_871.png 110.19207000732422,186.1342010498047,157.62484741210938,208.7158966064453,0.7673141,0 
D:/data-shared/varroc/VND-images/zpracovane\img_r_872.png 114.93989562988281,186.67062377929688,158.73558044433594,209.17013549804688,0.9320503,0 
D:/data-shared/varroc/VND-images/zpracovane\img_r_873.png 115.82228088378906,187.802978515625,160.4978485107422,210.9678955078125,0.8863758,0 
D:/data-shared/varroc/VND-images/zpracovane\img_r_874.png 118.510986328125,188.3896484375,162.40081787109375,211.44456481933594,0.9278359,0 
D:/data-shared/varroc/VND-images/zpracovane\img_r_875.png 119.96673583984375,189.20465087890625,163.93789672851562,212.28831481933594,0.8758797,0 
D:/data-shared/varroc/VND-images/zpracovane\img_r_876.png 119.33040618896484,190.63076782226562,165.93310546875,213.52291870117188,0.7062758,0 
D:/data-shared/varroc/VND-images/zpracovane\img_r_877.png 127.36668395996094,193.52719116210938,167.9420166015625,216.59022521972656,0.8946916,0 
D:/data-shared/varroc/VND-images/zpracovane\img_r_878.png 362.35260009765625,190.50192260742188,395.2800598144531,211.40438842773438,0.9905498,0 431.2069091796875,199.18106079101562,436.92169189453125,203.46075439453125,0.9025723,0 
D:/data-shared/varroc/VND-images/zpracovane\img_r_879.png 129.63037109375,193.39122009277344,169.984130859375,217.04075622558594,0.9331976,0 
D:/data-shared/varroc/VND-images/zpracovane\img_r_88.png 448.94818115234375,229.46401977539062,461.9476318359375,237.27572631835938,0.97008103,0 521.1417236328125,225.8116912841797,533.954833984375,232.268798828125,0.95395106,0 405.3424377441406,227.67124938964844,434.71588134765625,247.3729248046875,0.9537186,0 370.7259521484375,232.86476135253906,393.5867614746094,247.7081756591797,0.5763843,0 
D:/data-shared/varroc/VND-images/zpracovane\img_r_880.png 132.2357635498047,194.35015869140625,173.0518798828125,217.3322296142578,0.9619156,0 
D:/data-shared/varroc/VND-images/zpracovane\img_r_881.png 133.08290100097656,195.40829467773438,174.6793670654297,217.73414611816406,0.98209155,0 
D:/data-shared/varroc/VND-images/zpracovane\img_r_882.png 135.5358428955078,196.84393310546875,177.09288024902344,218.80149841308594,0.9829531,0 
D:/data-shared/varroc/VND-images/zpracovane\img_r_883.png 137.1991729736328,197.6387481689453,178.7703857421875,219.97811889648438,0.9714317,0 
D:/data-shared/varroc/VND-images/zpracovane\img_r_901.png 357.9300231933594,190.9535369873047,391.5372009277344,211.76107788085938,0.99377346,0 430.25689697265625,200.66688537597656,439.9088439941406,206.33010864257812,0.9810126,0 536.3633422851562,198.4734649658203,541.466064453125,201.7578125,0.5476237,0 
D:/data-shared/varroc/VND-images/zpracovane\img_r_91.png 450.4066467285156,230.07839965820312,462.79364013671875,237.40615844726562,0.9844765,0 520.7767333984375,225.99603271484375,533.6958618164062,232.453857421875,0.9814397,0 406.8076171875,229.49168395996094,436.5960998535156,248.3502960205078,0.96692157,0 369.3259582519531,233.20309448242188,393.6134948730469,247.7817840576172,0.58878684,0 
D:/data-shared/varroc/VND-images/zpracovane\img_r_92.png 520.6271362304688,226.39474487304688,533.5245361328125,232.72579956054688,0.9886429,0 450.5379638671875,230.38697814941406,462.75921630859375,237.66781616210938,0.984904,0 407.0390625,230.43109130859375,437.0877380371094,248.94960021972656,0.9534441,0 368.2740783691406,233.23492431640625,393.1675109863281,248.2041778564453,0.5299643,0 744.8218994140625,183.24964904785156,750.6967163085938,187.74874877929688,0.104339495,0 
D:/data-shared/varroc/VND-images/zpracovane\img_r_93.png 450.7438659667969,230.70143127441406,463.15118408203125,238.42962646484375,0.9925231,0 520.39697265625,226.4503173828125,533.1275024414062,232.81727600097656,0.9910986,0 407.19036865234375,231.541015625,437.4076232910156,249.8211669921875,0.9207054,0 365.12744140625,234.271240234375,395.7453918457031,251.20455932617188,0.48937577,0 
D:/data-shared/varroc/VND-images/zpracovane\img_r_94.png 520.5642700195312,226.58375549316406,532.9089965820312,232.84242248535156,0.9905054,0 450.6429138183594,231.02493286132812,462.8819885253906,238.5587921142578,0.987972,0 408.0244140625,232.49609375,438.20751953125,250.69004821777344,0.8643665,0 364.89093017578125,234.20584106445312,395.81524658203125,251.47947692871094,0.725232,0 712.9985961914062,221.3297576904297,717.4949951171875,225.62582397460938,0.21012658,0 
D:/data-shared/varroc/VND-images/zpracovane\img_r_95.png 520.519775390625,226.74249267578125,532.6531982421875,233.09878540039062,0.99042803,0 450.5694885253906,231.29299926757812,463.1463623046875,239.2704315185547,0.98803777,0 364.034912109375,234.7845916748047,395.525634765625,251.9132843017578,0.8524532,0 408.39227294921875,233.19717407226562,438.0701599121094,251.4329376220703,0.7808105,0 
D:/data-shared/varroc/VND-images/zpracovane\img_r_96.png 450.7012023925781,231.7547607421875,462.9532470703125,239.56968688964844,0.9770651,0 521.1361694335938,227.13232421875,532.5452270507812,233.0111541748047,0.9761351,0 363.3718566894531,234.85194396972656,394.9183044433594,252.7285919189453,0.9369261,0 409.0502624511719,234.38787841796875,438.9967041015625,252.40277099609375,0.7421564,0 
D:/data-shared/varroc/VND-images/zpracovane\img_r_855.png 80.14973449707031,177.54736328125,125.43159484863281,200.55699157714844,0.7903891,0 
